{
  "dev": {
    "allowedClients": [
      {
        "secret": "AQECAHh+WbHYdrY8IgMgDN+aLK1INXLpDCI7CLZ2ujU3XLecgQAAAKIwgZ8GCSqGSIb3DQEHBqCBkTCBjgIBADCBiAYJKoZIhvcNAQcBMB4GCWCGSAFlAwQBLjARBAyn6El1ef2Ljjs0+dQCARCAW+ebQ2H0iLQ4Jz+qY+dYdtMdb8g0mwDDFWXQaDLXSFcND4/Tj6jgRJ9OUev9fu49xBZZK7/AyHdiYsNq+rj/OtzYS+YQkTY/QLRahhzCBlOJscZss239Jk20SJ8=",
        "verifyOptions": {
          "issuer": "https://dev-ipifny.auth0.com/",
          "audience": "xKIAPF37AgONtCwbzNPjvaefslSBx1ar"
        },
        "encodeSecret": true
      },
      {
        "secret": "AQECAHh+WbHYdrY8IgMgDN+aLK1INXLpDCI7CLZ2ujU3XLecgQAAAKIwgZ8GCSqGSIb3DQEHBqCBkTCBjgIBADCBiAYJKoZIhvcNAQcBMB4GCWCGSAFlAwQBLjARBAw4z0puQM2Y5+3+Hz0CARCAWyJ+siVaS/NmHKKVjwczUUrsvmQS+ITBFLOG3bagmOYD2JMSSdLs4hhjWg6h+ipCkeiemQo9mJNquPb7XgdNofYF7O/5iVzDwf+5om4ZLqnIu1BMGvJMoJYoiwE=",
        "verifyOptions": {
          "audience": "jwRlj0lUOsZUkgqixaRdny7yHMn4599H",
          "issuer": "https://assist-ms.auth0.com/"
        },
        "encodeSecret": false
      },
      {
        "comment": "v3 JWKS style. no need for secret :)",
        "verifyOptions": {
          "issuer": "https://dev-aco.auth0.com/",
          "audience": "Af0stN16VXzUzBrPTtNB5MsU3vYUhWE2"
        }
      }
    ]
  },
  "policies": [
    {
      "role": "admin",
      "resources": [
        {
          "verb": "*",
          "resource": "*"
        }
      ]
    },
    {
      "orgRole": "owner",
      "resources": [
        {
          "verb": "GET",
          "resource": "/organizations/{orgId}/*"
        }
      ]
    },
    {
      "role": "consultant",
      "resources": [
        {
          "verb": "GET",
          "resource": "/organizations/*"
        }
      ]
    },
    {
      "role": "analyst",
      "resources": [
        {
          "verb": "GET",
          "resource": "/organizations/*"
        }
      ]
    },
    {
      "orgRole": "partner",
      "resources": [
        {
          "verb": "GET",
          "resource": "/organizations/{orgId}/*"
        }
      ]
    },
    {
      "orgRole": "partner_member",
      "resources": [
        {
          "verb": "POST",
          "resource": "/msp/{orgId}/download-report"
        },
        {
          "verb": "POST",
          "resource": "/proxy/*/organizations/{orgId}/download-report"
        }
      ]
    },
    {
      "orgRole": "partner_admin",
      "resources": [
        {
          "verb": "POST",
          "resource": "/msp/{orgId}/download-report"
        },
        {
          "verb": "POST",
          "resource": "/proxy/*/organizations/{orgId}/download-report"
        }
      ]
    }
  ],
  "version": "2"
}
