{
  "dev": {
    "allowedClients": [
      {
        "secret": "AQECAHh+WbHYdrY8IgMgDN+aLK1INXLpDCI7CLZ2ujU3XLecgQAAAKIwgZ8GCSqGSIb3DQEHBqCBkTCBjgIBADCBiAYJKoZIhvcNAQcBMB4GCWCGSAFlAwQBLjARBAyf++CAYDjv4Lll1sECARCAW2vi2P8zvRsQgMsa4AQffGoFE/I6898Byg/Ea07++fQQsejPbHmcMDlMEemQSvNL37wY5U34dYC3ZgcSEZbmzaF96H9yNdP8ObUU3V3wAMtmjkpCv9CcIwJVbWw=",
        "verifyOptions": {
          "issuer": "https://dev-accordo.au.auth0.com/",
          "audience": "BocVApIjvf84jewFfWVFH3zseVtZout2"
        },
        "encodeSecret": false
      },
      {
        "secret": "AQECAHh+WbHYdrY8IgMgDN+aLK1INXLpDCI7CLZ2ujU3XLecgQAAAKIwgZ8GCSqGSIb3DQEHBqCBkTCBjgIBADCBiAYJKoZIhvcNAQcBMB4GCWCGSAFlAwQBLjARBAyn6El1ef2Ljjs0+dQCARCAW+ebQ2H0iLQ4Jz+qY+dYdtMdb8g0mwDDFWXQaDLXSFcND4/Tj6jgRJ9OUev9fu49xBZZK7/AyHdiYsNq+rj/OtzYS+YQkTY/QLRahhzCBlOJscZss239Jk20SJ8=",
        "verifyOptions": {
          "issuer": "https://dev-ipifny.auth0.com/",
          "audience": "xKIAPF37AgONtCwbzNPjvaefslSBx1ar"
        },
        "encodeSecret": true
      },
      {
        "secret": "AQECAHh+WbHYdrY8IgMgDN+aLK1INXLpDCI7CLZ2ujU3XLecgQAAAKIwgZ8GCSqGSIb3DQEHBqCBkTCBjgIBADCBiAYJKoZIhvcNAQcBMB4GCWCGSAFlAwQBLjARBAy8lo4x5TJ2tTNPn0kCARCAWx7BlFz+FbCwpL9WLXS5HOXJAlNq+KDtM08kqN7EarYDEx79snAMQRzbLkRekO8v7uC7lY/MnVBCEzldlueddWdEgwyeUE+4hLutazees/E4ib3+suMyBUx5S88=",
        "verifyOptions": {
          "issuer": "https://dev-accordo.au.auth0.com/",
          "audience": "UoSXztX9HwfDZp9xnUyDdzObdMOCgOjg"
        },
        "encodeSecret": true
      },
      {
        "secret": "AQECAHh+WbHYdrY8IgMgDN+aLK1INXLpDCI7CLZ2ujU3XLecgQAAAKIwgZ8GCSqGSIb3DQEHBqCBkTCBjgIBADCBiAYJKoZIhvcNAQcBMB4GCWCGSAFlAwQBLjARBAw4z0puQM2Y5+3+Hz0CARCAWyJ+siVaS/NmHKKVjwczUUrsvmQS+ITBFLOG3bagmOYD2JMSSdLs4hhjWg6h+ipCkeiemQo9mJNquPb7XgdNofYF7O/5iVzDwf+5om4ZLqnIu1BMGvJMoJYoiwE=",
        "verifyOptions": {
          "audience": "jwRlj0lUOsZUkgqixaRdny7yHMn4599H",
          "issuer": "https://assist-ms.auth0.com/"
        },
        "encodeSecret": false
      },
      {
        "comment": "v3 JWKS style. no need for secret :)",
        "verifyOptions": {
          "issuer": "https://dev-aco.auth0.com/",
          "audience": "Af0stN16VXzUzBrPTtNB5MsU3vYUhWE2"
        }
      }
    ]
  },
  "policies": [
    {
      "orgRole": "partner_admin",
      "resources": [
        {
          "verb": "PUT",
          "resource": "/aco/msp/{orgId}/profile"
        },
        {
          "verb": "PUT",
          "resource": "/aco/msp/{orgId}/promotion-code"
        },
        {
          "verb": "PUT",
          "resource": "/aco/msp/{orgId}/payment-method"
        },
        {
          "verb": "PUT",
          "resource": "/aco/msp/{orgId}/billing-email"
        },
        {
          "verb": "PUT",
          "resource": "/aco/msp/{orgId}/billing-address"
        },
        {
          "verb": "PUT",
          "resource": "/aco/msp/{orgId}/mfa"
        },
        {
          "verb": "POST",
          "resource": "/aco/msp/{orgId}/cancel-subscription"
        },
        {
          "verb": "POST",
          "resource": "/aco/msp/{orgId}/client"
        },
        {
          "verb": "GET",
          "resource": "/{orgId}"
        },
        {
          "verb": "DELETE",
          "resource": "/aco/client/{orgId}"
        },
        {
          "verb": "GET",
          "resource": "/aco/msp/{orgId}/plan-usage"
        },
        {
          "verb": "GET",
          "resource": "/aco/msp/{orgId}/disti-billingmeter"
        },
        {
          "verb": "GET",
          "resource": "/aco/msp/{orgId}/members"
        },
        {
          "verb": "DELETE",
          "resource": "/aco/msp/{orgId}/members/*"
        },
        {
          "verb": "POST",
          "resource": "/aco/msp/{orgId}/invite"
        },
        {
          "verb": "PUT",
          "resource": "/aco/client/{orgId}/profile"
        },
        {
          "verb": "PUT",
          "resource": "/aco/client/{orgId}/psa"
        },
        {
          "verb": "PUT",
          "resource": "/aco/client/{orgId}/microsoft"
        }
      ]
    },
    {
      "orgRole": "partner_member",
      "resources": [
        {
          "verb": "POST",
          "resource": "/aco/msp/{orgId}/client"
        },
        {
          "verb": "GET",
          "resource": "/{orgId}"
        },
        {
          "verb": "DELETE",
          "resource": "/aco/client/{orgId}"
        },
        {
          "verb": "PUT",
          "resource": "/aco/client/{orgId}/psa"
        },
        {
          "verb": "PUT",
          "resource": "/aco/client/{orgId}/microsoft"
        }
      ]
    }
  ],
  "version": "2"
}
