{
  "dev": {
    "allowedClients": [
	   {
        "secret": "AQECAHh+WbHYdrY8IgMgDN+aLK1INXLpDCI7CLZ2ujU3XLecgQAAAKIwgZ8GCSqGSIb3DQEHBqCBkTCBjgIBADCBiAYJKoZIhvcNAQcBMB4GCWCGSAFlAwQBLjARBAw4z0puQM2Y5+3+Hz0CARCAWyJ+siVaS/NmHKKVjwczUUrsvmQS+ITBFLOG3bagmOYD2JMSSdLs4hhjWg6h+ipCkeiemQo9mJNquPb7XgdNofYF7O/5iVzDwf+5om4ZLqnIu1BMGvJMoJYoiwE=",
        "verifyOptions": {
          "audience": "jwRlj0lUOsZUkgqixaRdny7yHMn4599H",
          "issuer": "https://assist-ms.auth0.com/"
        },
        "encodeSecret": false
      }
    ]
  },
  "uat": {
    "allowedClients": [
      {
        "secret": "AQECAHh+WbHYdrY8IgMgDN+aLK1INXLpDCI7CLZ2ujU3XLecgQAAAKIwgZ8GCSqGSIb3DQEHBqCBkTCBjgIBADCBiAYJKoZIhvcNAQcBMB4GCWCGSAFlAwQBLjARBAzNE6CMtjwgEilpG9MCARCAW78XlvLkN1KVHLRdFG3LejqStYuZ1JtSAVhtZY21K2e5hRYaGn9Y7KIfbqOy+D6wSsf4qBreTpdGqXGU846iXuvu34VLj0zEgoG65RtFn/UAkCMoQxOjj3/zE1c=",
        "verifyOptions" :{
          "issuer": "https://assist-ms.auth0.com/",
          "audience": "2q3pD01QRpbs8md8OTzjsNceJsQC6wsb"
        },
        "encodeSecret": false
      }
    ]
  },
  "prod": {
    "allowedClients": [
      {
        "secret": "AQECAHh+WbHYdrY8IgMgDN+aLK1INXLpDCI7CLZ2ujU3XLecgQAAAKIwgZ8GCSqGSIb3DQEHBqCBkTCBjgIBADCBiAYJKoZIhvcNAQcBMB4GCWCGSAFlAwQBLjARBAxIXYBBrsejvNT0lz0CARCAW6oCwjpPfTDw5Xora+iYK25ZXqYJselDeGbaczOWpk0EAm0Q5HAwehAUwGJ6eVjvGRSN8bT8XOlVvHjxVZnN/EqYBugDUdlwHvXmkZ4mKKqXXNKp8V6Wynal/QI=",
        "verifyOptions" :{
          "issuer": "https://assist-ms.auth0.com/",
          "audience": "1j9pIc3ohCQh64PUINz1GAVrZtDOij4d"
        },
        "encodeSecret": false
      }
    ]
  },
  "qa": {
    "allowedClients": [
      {
        "secret": "AQECAHh+WbHYdrY8IgMgDN+aLK1INXLpDCI7CLZ2ujU3XLecgQAAAKIwgZ8GCSqGSIb3DQEHBqCBkTCBjgIBADCBiAYJKoZIhvcNAQcBMB4GCWCGSAFlAwQBLjARBAw4z0puQM2Y5+3+Hz0CARCAWyJ+siVaS/NmHKKVjwczUUrsvmQS+ITBFLOG3bagmOYD2JMSSdLs4hhjWg6h+ipCkeiemQo9mJNquPb7XgdNofYF7O/5iVzDwf+5om4ZLqnIu1BMGvJMoJYoiwE=",
        "verifyOptions" :{
          "issuer": "https://assist-ms.auth0.com/",
          "audience": "jwRlj0lUOsZUkgqixaRdny7yHMn4599H"
        },
        "encodeSecret": false
      }
    ]
  },
  "policies":[
    {
      "role":"CATUsers",
      "resources":[
      {"verb":"*", "resource":"*"}
      ]
    }
],
  "version": "2"
}