{
  "dev": {
    "allowedClients": [
      {
        "secret": "AQECAHh+WbHYdrY8IgMgDN+aLK1INXLpDCI7CLZ2ujU3XLecgQAAAKIwgZ8GCSqGSIb3DQEHBqCBkTCBjgIBADCBiAYJKoZIhvcNAQcBMB4GCWCGSAFlAwQBLjARBAwCfwYbkjvVM5XGGfQCARCAWyIjgBB7LymFj3h+gCXLn1RYuJFQ0yjsoEGPMA5UbKMezC8YviUnHNiakkH0lrAGTGa+kJ+lH3loRMI1C+991+whU7DOrmoE0WNHQ/Z1AAg4K2ENSgj0f8tBTD0=",
        "verifyOptions": {
          "issuer": "https://assist-ms.auth0.com/",
          "audience": "Bzx4p6WpOG563JrzlHfOPwlaaUTZJKDr"
        },
        "encodeSecret": false
      }
    ]
  },
  "uat": {
    "allowedClients": [
      {
        "secret": "AQECAHh+WbHYdrY8IgMgDN+aLK1INXLpDCI7CLZ2ujU3XLecgQAAAKIwgZ8GCSqGSIb3DQEHBqCBkTCBjgIBADCBiAYJKoZIhvcNAQcBMB4GCWCGSAFlAwQBLjARBAwCfwYbkjvVM5XGGfQCARCAWyIjgBB7LymFj3h+gCXLn1RYuJFQ0yjsoEGPMA5UbKMezC8YviUnHNiakkH0lrAGTGa+kJ+lH3loRMI1C+991+whU7DOrmoE0WNHQ/Z1AAg4K2ENSgj0f8tBTD0=",
        "verifyOptions": {
          "issuer": "https://assist-ms.auth0.com/",
          "audience": "Bzx4p6WpOG563JrzlHfOPwlaaUTZJKDr"
        },
        "encodeSecret": false
      }
    ]
  },
  "prod": {
    "allowedClients": [
      {
        "secret": "AQECAHh+WbHYdrY8IgMgDN+aLK1INXLpDCI7CLZ2ujU3XLecgQAAAKIwgZ8GCSqGSIb3DQEHBqCBkTCBjgIBADCBiAYJKoZIhvcNAQcBMB4GCWCGSAFlAwQBLjARBAwCfwYbkjvVM5XGGfQCARCAWyIjgBB7LymFj3h+gCXLn1RYuJFQ0yjsoEGPMA5UbKMezC8YviUnHNiakkH0lrAGTGa+kJ+lH3loRMI1C+991+whU7DOrmoE0WNHQ/Z1AAg4K2ENSgj0f8tBTD0=",
        "verifyOptions": {
          "issuer": "https://assist-ms.auth0.com/",
          "audience": "Bzx4p6WpOG563JrzlHfOPwlaaUTZJKDr"
        },
        "encodeSecret": false
      }
    ]
  },
  "policies": [
    {
      "role": "admin",
      "resources": [
        {
          "verb": "*",
          "resource": "*"
        }
      ]
    }    
  ],
  "version": "2"
}