{
  "dev": {
    "allowedClients": [
      {
        "secret": "AQECAHh+WbHYdrY8IgMgDN+aLK1INXLpDCI7CLZ2ujU3XLecgQAAAKIwgZ8GCSqGSIb3DQEHBqCBkTCBjgIBADCBiAYJKoZIhvcNAQcBMB4GCWCGSAFlAwQBLjARBAyf++CAYDjv4Lll1sECARCAW2vi2P8zvRsQgMsa4AQffGoFE/I6898Byg/Ea07++fQQsejPbHmcMDlMEemQSvNL37wY5U34dYC3ZgcSEZbmzaF96H9yNdP8ObUU3V3wAMtmjkpCv9CcIwJVbWw=",
        "verifyOptions": {
          "issuer": "https://dev-accordo.au.auth0.com/",
          "audience": "BocVApIjvf84jewFfWVFH3zseVtZout2"
        },
        "encodeSecret": false
      },
      {
        "secret": "AQECAHh+WbHYdrY8IgMgDN+aLK1INXLpDCI7CLZ2ujU3XLecgQAAAKIwgZ8GCSqGSIb3DQEHBqCBkTCBjgIBADCBiAYJKoZIhvcNAQcBMB4GCWCGSAFlAwQBLjARBAyn6El1ef2Ljjs0+dQCARCAW+ebQ2H0iLQ4Jz+qY+dYdtMdb8g0mwDDFWXQaDLXSFcND4/Tj6jgRJ9OUev9fu49xBZZK7/AyHdiYsNq+rj/OtzYS+YQkTY/QLRahhzCBlOJscZss239Jk20SJ8=",
        "verifyOptions": {
          "issuer": "https://dev-ipifny.auth0.com/",
          "audience": "xKIAPF37AgONtCwbzNPjvaefslSBx1ar"
        },
        "encodeSecret": true
      },
      {
        "secret": "AQECAHh+WbHYdrY8IgMgDN+aLK1INXLpDCI7CLZ2ujU3XLecgQAAAKIwgZ8GCSqGSIb3DQEHBqCBkTCBjgIBADCBiAYJKoZIhvcNAQcBMB4GCWCGSAFlAwQBLjARBAy8lo4x5TJ2tTNPn0kCARCAWx7BlFz+FbCwpL9WLXS5HOXJAlNq+KDtM08kqN7EarYDEx79snAMQRzbLkRekO8v7uC7lY/MnVBCEzldlueddWdEgwyeUE+4hLutazees/E4ib3+suMyBUx5S88=",
        "verifyOptions": {
          "issuer": "https://dev-accordo.au.auth0.com/",
          "audience": "UoSXztX9HwfDZp9xnUyDdzObdMOCgOjg"
        },
        "encodeSecret": true
      }
    ]
  },
  "uat": {
    "allowedClients": [
      {
        "secret": "AQECAHh+WbHYdrY8IgMgDN+aLK1INXLpDCI7CLZ2ujU3XLecgQAAAKIwgZ8GCSqGSIb3DQEHBqCBkTCBjgIBADCBiAYJKoZIhvcNAQcBMB4GCWCGSAFlAwQBLjARBAwBuzh1Cth1f0LA28ECARCAW4pb5b3lzksL9hWNH7MP2NEuopqrTBgWS07g9LINJ8QSeoAiSmxU/WUA/6URjUCBlcb6HTqsdLCs9VRAIwiSiI8TWnoBlptrOL+YOA+YuUnE64SiLRceInXiM+I=",
        "verifyOptions": {
          "issuer": "https://assist-ms.auth0.com/",
          "audience": "kL38Z3YmBHDxq4CTjSYDRltkSFTUxJwy"
        },
        "encodeSecret": false
      },
      {
        "secret": "AQECAHh+WbHYdrY8IgMgDN+aLK1INXLpDCI7CLZ2ujU3XLecgQAAAKIwgZ8GCSqGSIb3DQEHBqCBkTCBjgIBADCBiAYJKoZIhvcNAQcBMB4GCWCGSAFlAwQBLjARBAwJ2MzcB+YYTtniIvcCARCAW4kD8Kp9y+B5vKPYDw9y6NEQKPdSv/3FkuZhuB+8OpAEC8rDfLKMjNmpCauZEkFHWkrlO6llIifsWWgoOjBglOzGC0kYFKo/x/9nXu4ylMmOknif5OsS3hJvfsk=",
        "verifyOptions": {
          "issuer": "https://ipifny.auth0.com/",
          "audience": "kqU75PBooU3Tc6hj6y59VuN4etsoe2QV"
        },
        "encodeSecret": true
      },
      {
        "secret": "AQECAHh+WbHYdrY8IgMgDN+aLK1INXLpDCI7CLZ2ujU3XLecgQAAAKIwgZ8GCSqGSIb3DQEHBqCBkTCBjgIBADCBiAYJKoZIhvcNAQcBMB4GCWCGSAFlAwQBLjARBAzKjS78kqB5kYgIKf8CARCAW2QL0e/p9xpFQHQFNn23QwnIRcWfG6bUJelpOTvS9ZVa0GEc8pRO+Ims1opCZt/pO9g2Br6peH4SLkicsLXaXJKkOsDHGMKmkIkDOa5gVgGnGGkUKV1MYF8HdmQ=",
        "verifyOptions": {
          "issuer": "https://assist-ms.auth0.com/",
          "audience": "Se1I8pLsdO1huMNP7jTURyfITAHImXbr"
        },
        "encodeSecret": true
      }
    ]
  },
  "prod": {
    "allowedClients": [
      {
        "secret": "AQECAHh+WbHYdrY8IgMgDN+aLK1INXLpDCI7CLZ2ujU3XLecgQAAAKIwgZ8GCSqGSIb3DQEHBqCBkTCBjgIBADCBiAYJKoZIhvcNAQcBMB4GCWCGSAFlAwQBLjARBAzOYxQDq4uiRGISvs4CARCAW3XDXz++Ac6r9GDpTHynyEHZgAL6OOzKipv+O1hxaPCHduKxb7QHgDtcAlm/XyqN2S3oevOenvodhkZFRtn5MmYBc+v97tnxTXUqzSh/Go6WfzKeS2R1jj+WqTw=",
        "verifyOptions": {
          "issuer": "https://assist-ms.auth0.com/",
          "audience": "oQ9ZXvU0aV9LZl3BFU9m5bvRxtIZaF6E"
        },
        "encodeSecret": false
      },
      {
        "secret": "AQECAHh+WbHYdrY8IgMgDN+aLK1INXLpDCI7CLZ2ujU3XLecgQAAAKIwgZ8GCSqGSIb3DQEHBqCBkTCBjgIBADCBiAYJKoZIhvcNAQcBMB4GCWCGSAFlAwQBLjARBAz58xkl8IQD0+7zQOUCARCAWx2W8z8TpgBgq/fG7vYDzNFlXM8qV6inVUlw7F+PxFzhBRjOOldLe+zTv4HKOdGYxWwZas953nqo8W5ABlDAzcVSI22C1q7DmqM8cCkiF4/jFou/7H2DqQQdvR0=",
        "verifyOptions": {
          "issuer": "https://ipifny.auth0.com/",
          "audience": "3L37pWGhJLGLjpZbDVTL11yOlBC5fUEt"
        },
        "encodeSecret": true
      },
      {
        "secret": "AQECAHh+WbHYdrY8IgMgDN+aLK1INXLpDCI7CLZ2ujU3XLecgQAAAKIwgZ8GCSqGSIb3DQEHBqCBkTCBjgIBADCBiAYJKoZIhvcNAQcBMB4GCWCGSAFlAwQBLjARBAz7xNKiqWnkTZpec1UCARCAW6ui+UkuriFNg8L3fUTdtpE18lw33HqLXKoz7qJpQrB3kYg2Ia9pLHxjHR1hA6SRf18bLNpmyb0YNFnoNMoRaa1OauqKv375R0O4k9iD5SEKQUsHG4kxqCHuU6I=",
        "verifyOptions": {
          "issuer": "https://assist-ms.auth0.com/",
          "audience": "eNXC0P7CxqEcrlVmx34Cihuqji9xNp7D"
        },
        "encodeSecret": true
      }
    ]
  },
  "policies": [
    {
      "role":"admin",
      "resources":[
      {"verb":"*", "resource":"*"}
      ]
    },
    {
      "role":"consultant",
      "resources":[
        {"verb":"GET", "resource":"/direct/*"},
        {"verb":"GET", "resource":"/assessments/{sub}/organisations/*"}
      ]
    },
    {
      "role":"user",
      "resources":[
        {"verb":"GET", "resource":"/user/{sub}"},
        {"verb":"PUT", "resource":"/user/{sub}/*"},
          {"verb":"GET", "resource":"/products"},
          {"verb":"GET", "resource":"/assessments/{sub}/organisations/*"},
        {"verb":"PUT", "resource":"/assessments/{sub}/*"}
      ]
    }
  ],
  "version": "2"
}